…
### Kernel state vars

``` r
kernel_state()
## # A tibble: 1,296 x 2
##    setting               value                        
##    <chr>                 <chr>                        
##  1 user.cs_path          /usr/bin:/bin:/usr/sbin:/sbin
##  2 user.bc_base_max      99                           
##  3 user.bc_dim_max       2048                         
##  4 user.bc_scale_max     99                           
##  5 user.bc_string_max    1000                         
##  6 user.coll_weights_max 2                            
##  7 user.expr_nest_max    32                           
##  8 user.line_max         2048                         
##  9 user.re_dup_max       255                          
## 10 user.posix2_version   200112                       
## # … with 1,286 more rows
```
…
### “Software Update” History

``` r
software_update_history()
## # A tibble: 537 x 6
##    displayName                   displayVersion date                packageIdentifiers processName     contentType
##    <chr>                         <chr>          <dttm>              <list>             <chr>           <chr>      
##  1 XProtectPlistConfigData       2103           2019-06-03 22:18:20 <chr [2]>          softwareupdated config-data
##  2 Gatekeeper Configuration Data 167            2019-06-03 22:18:20 <chr [2]>          softwareupdated config-data
##  3 Microsoft Excel               <NA>           2019-06-04 10:35:20 <chr [1]>          installer       <NA>       
##  4 Microsoft PowerPoint          <NA>           2019-06-04 10:35:53 <chr [1]>          installer       <NA>       
##  5 Microsoft Word                <NA>           2019-06-04 10:36:22 <chr [1]>          installer       <NA>       
##  6 OneDrive                      19.062.0331    2019-06-04 11:34:51 <chr [1]>          appstoreagent   <NA>       
##  7 MindNode                      6.0.3          2019-06-05 19:50:41 <chr [1]>          storedownloadd  <NA>       
##  8 MindNode                      6.0.3          2019-06-06 00:50:26 <chr [1]>          appstoreagent   <NA>       
##  9 Tweetbot                      3.3            2019-06-06 00:50:56 <chr [1]>          appstoreagent   <NA>       
## 10 Microsoft Excel               <NA>           2019-06-06 00:52:53 <chr [1]>          installer       <NA>       
## # … with 527 more rows
```
…
